  643  cd Desktop/FI/PV177/mastering-git
  644  git pull
  645  git status
  646  git switch -c class3_hw
  647  cd class3_homework
  648  nano 482728.txt
  649  git add 482729.txt
  650  git add 482728.txt
  651  git commit -m "Add course feedback file"
  652  git status
  653  git push origin class3_hw
  654  git history > 482728_commands.txt
