 1011  cd class3_homework
 1012  ls
 1013  cat 255490
 1014  cat 255490.txt
 1015  ls
 1016  vim 525068.txt
 1017  vim 525068.txt
 1018  git pull
 1019  git checkout main
 1020  git pull
 1021  git checkout hw03
 1022  vim 525068.txt
 1023  git add 525068.txt
 1024  git commit -m "525068.txt added - quick review of this course"
 1025  git push
 1026      git push --set-upstream origin hw03
